{"menuItems": [
  {
    "id": 0,
    "name": "FOOD",
    "imageUrl": "http://cdn-image.myrecipes.com/sites/default/files/styles/420x420/public/crunchy-whole-wheat-veggie-pizzas-ck.jpg?itok=1_ugCUUQ"
  },{
    "id": 1,
    "name": "SNACKS",
    "imageUrl": "http://flannerys.com.au/wordpress/wp-content/uploads/2014/09/Chewy-Granola-Bars.jpg"
  }, {
    "id": 2,
    "name": "DESSERT",
    "imageUrl": "http://img1.sunset.timeinc.net/sites/default/files/image/2015/06/400xvariable/fruit-tart-recipes-chocolate-raspberry-tart-0715-l.jpg"
  },{
    "id": 3,
    "name": "REFRESHMENTS",
    "imageUrl": "https://s-media-cache-ak0.pinimg.com/236x/25/e1/2d/25e12d868b570ed13cd4eee794dc0280.jpg"
  }, {
    "id": 4,
    "name": "HOT_DRINKS",
    "imageUrl": "http://static.boredpanda.com/blog/wp-content/uploads/2015/09/cute-drawings-coffee-stories-cinzia-bolognesi-1.jpg"
  }
]}