{
  "success":true,
  "userOpinionInfoList":[
    {
      "id":1,
      "productId":1,
      "rating":2,
      "comment":"Good",
      "thumbnailUrl":"https://cdn1.iconfinder.com/data/icons/social-messaging-productivity-1-1/128/gender-male2-512.png",
      "date":"2016-06-30"
    },
    {
      "id":2,
      "productId":1,
      "rating":3,
      "comment":"Not bad",
      "thumbnailUrl":"https://cdn1.iconfinder.com/data/icons/social-messaging-productivity-1-1/128/gender-male2-512.png",
      "date":"2016-05-03"
    },
    {
      "id":3,
      "productId":1,
      "rating":5,
      "comment":"Awesome",
      "thumbnailUrl":"https://cdn1.iconfinder.com/data/icons/social-messaging-productivity-1-1/128/gender-male2-512.png",
      "date":"2016-04-30"
    },
    {
      "id":4,
      "productId":2,
      "rating":2,
      "comment":"Good",
      "thumbnailUrl":"https://cdn1.iconfinder.com/data/icons/social-messaging-productivity-1-1/128/gender-male2-512.png",
      "date":"2016-06-30"
    },
    {
      "id":5,
      "productId":1,
      "rating":3,
      "comment":"Not bad",
      "thumbnailUrl":"https://cdn1.iconfinder.com/data/icons/social-messaging-productivity-1-1/128/gender-male2-512.png",
      "date":"2016-05-03"
    },
    {
      "id":6,
      "productId":3,
      "rating":5,
      "comment":"Awesome",
      "thumbnailUrl":"https://cdn1.iconfinder.com/data/icons/social-messaging-productivity-1-1/128/gender-male2-512.png",
      "date":"2016-04-30"
    },
    {
      "id":7,
      "productId":3,
      "rating":2,
      "comment":"Good",
      "thumbnailUrl":"https://cdn1.iconfinder.com/data/icons/social-messaging-productivity-1-1/128/gender-male2-512.png",
      "date":"2016-06-30"
    },
    {
      "id":8,
      "productId":2,
      "rating":3,
      "comment":"Not bad",
      "thumbnailUrl":"https://cdn1.iconfinder.com/data/icons/social-messaging-productivity-1-1/128/gender-male2-512.png",
      "date":"2016-05-03"
    },
    {
      "id":9,
      "productId":2,
      "rating":5,
      "comment":"Awesome",
      "thumbnailUrl":"https://cdn1.iconfinder.com/data/icons/social-messaging-productivity-1-1/128/gender-male2-512.png",
      "date":"2016-04-30"
    }
  ]


}

