{"events": [
  {
    "name": "pink cupcake",
    "quantity": 0,
    "description": "1st free item",
    "date": "2016-05-01",
    "price": 2.43,
    "imageUrl": "http://sugarcraftshop.thecakepantry.com/ekmps/shops/thecakepantry/images/white-pearl-swirl-cupcake-wrap-382-p.jpg"

  },
  {
    "name": "chocolate cupcake",
    "quantity": 33,
    "description": "2nd free item",
    "price": 1.4231,
    "date": "2016-05-02",
    "imageUrl": "http://i.imgur.com/mQ2oCEC.jpg"

  },
  {
    "name": "fruits cupcake",
    "quantity": 1,
    "description": "3rd free item",
    "price": 6.6123,
    "date": "2016-05-03",
    "imageUrl": "http://cdn-image.myrecipes.com/sites/default/files/styles/420x420/public/image/recipes/su/11/07/vegan-cupcake-su-x.jpg?itok=aZD0aRdo"
  },

  {
    "name": "straweberry cupcake",
    "quantity": 1,
    "description": "3rd free item",
    "price": 5.55555,
    "date": "2016-05-04",
    "imageUrl": "http://i.imgur.com/ajRXFHe.jpg"
  },
  {
    "name": "Fruits cupcake",
    "quantity": 1,
    "description": "3rd free item",
    "price": 1.523542,
    "date": "2016-05-05",
    "imageUrl": "http://i.imgur.com/i1UV3zi.jpg"
  },
  {
    "name": "Fruits cupcake",
    "quantity": 1,
    "description": "3rd free item",
    "price": 2.153134,
    "date": "2016-05-06",
    "imageUrl": "http://i.imgur.com/thVz5A5.jpg"
  },
  {
    "name": "Fruits cupcake",
    "quantity": 1,
    "description": "3rd free item",
    "price": 5.1251235423,
    "date": "2016-05-07",
    "imageUrl": "http://i.imgur.com/jY69c9T.jpg"
  },
  {
    "name": "Fruits cupcake",
    "quantity": 1,
    "description": "3rd free item",
    "price": 2.49,
    "date": "2016-05-04",
    "imageUrl": "http://i.imgur.com/6A0LM3x.jpg"
  },
  {
    "name": "Fruits cupcake",
    "quantity": 1,
    "description": "3rd free item",
    "price": 4.523450,
    "date": "2016-05-06",
    "imageUrl": "http://i.imgur.com/zaTTPOJ.jpg"
  },
  {
    "name": "fruits cupcake",
    "quantity": 1,
    "description": "3rd free item",
    "price": 4.55231,
    "date": "2016-05-07",
    "imageUrl": "http://i.imgur.com/6SJgpoz.jpg"
  },
  {
    "name": "Fruits cupcake",
    "quantity": 1,
    "description": "3rd free item",
    "price": 13.5522,
    "date": "2016-05-08",
    "imageUrl": "http://i.imgur.com/zaTTPOJ.jpg"
  },
  {
    "name": "Fruits cupcake",
    "quantity": 1,
    "description": "3rd free item",
    "price": 12.55122,
    "date": "2016-05-09",
    "imageUrl": "http://i.imgur.com/6SJgpoz.jpg"
  }
]}


